{
  "indent-blankline.nvim": { "branch": "master", "commit": "3d08501caef2329aba5121b753e903904088f7e6" },
  "lazy.nvim": { "branch": "main", "commit": "af6afefbb46ab29a8a1db69536b04290a9403876" },
  "lualine.nvim": { "branch": "master", "commit": "b5e8bb642138f787a2c1c5aedc2a78cb2cebbd67" },
  "neoconf.nvim": { "branch": "main", "commit": "9a419c4fa772c4c61839a8f7fdd8e863679a8c94" },
  "neodev.nvim": { "branch": "main", "commit": "6a533ed9d3435dcaa456380d833ea04da37ea2ed" },
  "nvim-autopairs": { "branch": "master", "commit": "dbfc1c34bed415906395db8303c71039b3a3ffb4" },
  "nvim-web-devicons": { "branch": "master", "commit": "cb0c967c9723a76ccb1be0cc3a9a10e577d2f6ec" },
  "vim-code-dark": { "branch": "master", "commit": "8def3d890b2087ee4c42af03117d7edc7d693706" },
  "which-key.nvim": { "branch": "main", "commit": "4433e5ec9a507e5097571ed55c02ea9658fb268a" }
}